module nhentai

go 1.17

require (
	github.com/go-flutter-desktop/go-flutter v0.44.0
	github.com/go-flutter-desktop/plugins/url_launcher v0.1.3
	github.com/go-gl/glfw/v3.3/glfw v0.0.0-20220320163800-277f93cfa958
	github.com/miguelpruivo/flutter_file_picker/go v0.0.0-20220310123445-443808b9cd35
	github.com/niuhuan/nhentai-go v0.0.0-20211208101155-25a06ad6c829
	github.com/pkg/errors v0.9.1
	golang.org/x/image v0.0.0-20220321031419-a8550c1d254a
	gorm.io/driver/sqlite v1.3.1
	gorm.io/gorm v1.23.4
)

require (
	github.com/PuerkitoBio/goquery v1.8.0 // indirect
	github.com/Xuanwo/go-locale v1.1.0 // indirect
	github.com/andybalholm/cascadia v1.3.1 // indirect
	github.com/gen2brain/dlgs v0.0.0-20190708095831-3854608588f7 // indirect
	github.com/go-gl/gl v0.0.0-20211025173605-bda47ffaa784 // indirect
	github.com/gopherjs/gopherjs v0.0.0-20190915194858-d3ddacdb130f // indirect
	github.com/jinzhu/inflection v1.0.0 // indirect
	github.com/jinzhu/now v1.1.4 // indirect
	github.com/json-iterator/go v1.1.12 // indirect
	github.com/mattn/go-sqlite3 v1.14.9 // indirect
	github.com/modern-go/concurrent v0.0.0-20180228061459-e0a39a4cb421 // indirect
	github.com/modern-go/reflect2 v1.0.2 // indirect
	golang.org/x/mobile v0.0.0-20220504144722-50dca8fc073d // indirect
	golang.org/x/mod v0.4.2 // indirect
	golang.org/x/net v0.0.0-20210916014120-12bc252f5db8 // indirect
	golang.org/x/sys v0.0.0-20211023085530-d6a326fbbf70 // indirect
	golang.org/x/text v0.3.7 // indirect
	golang.org/x/tools v0.1.8-0.20211022200916-316ba0b74098 // indirect
	golang.org/x/xerrors v0.0.0-20200804184101-5ec99f83aff1 // indirect
)
